<?xml version="1.0" encoding="UTF-8" standalone="no"?>
<svg
   height="190"
   width="190"
   sodipodi:docname="comment.svg"
   inkscape:version="1.1-alpha (c0348e2757, 2021-02-14, custom)"
   version="1.0"
   viewBox="0 0 190 190"
   id="svg2"
   inkscape:export-filename="/home/doctormo/Projects/inkscape/inkscape-web/forums/static/forums/images/broken_image.png"
   inkscape:export-xdpi="55.580002"
   inkscape:export-ydpi="55.580002"
   xmlns:inkscape="http://www.inkscape.org/namespaces/inkscape"
   xmlns:sodipodi="http://sodipodi.sourceforge.net/DTD/sodipodi-0.dtd"
   xmlns:xlink="http://www.w3.org/1999/xlink"
   xmlns="http://www.w3.org/2000/svg"
   xmlns:svg="http://www.w3.org/2000/svg"
   xmlns:rdf="http://www.w3.org/1999/02/22-rdf-syntax-ns#"
   xmlns:cc="http://creativecommons.org/ns#"
   xmlns:dc="http://purl.org/dc/elements/1.1/">
  <style
     id="style862" />
  <defs
     id="defs66">
    <inkscape:path-effect
       effect="powerstroke"
       id="path-effect41"
       is_visible="true"
       offset_points="0,0.5"
       sort_points="true"
       interpolator_type="CubicBezierJohan"
       interpolator_beta="0.2"
       start_linecap_type="zerowidth"
       linejoin_type="extrp_arc"
       miter_limit="4"
       end_linecap_type="zerowidth" />
    <clipPath
       clipPathUnits="userSpaceOnUse"
       id="clipPath4388">
      <circle
         style="color:#000000;clip-rule:nonzero;display:inline;overflow:visible;visibility:visible;opacity:1;isolation:auto;mix-blend-mode:normal;color-interpolation:sRGB;color-interpolation-filters:linearRGB;solid-color:#000000;solid-opacity:1;fill:#000000;fill-opacity:1;fill-rule:nonzero;stroke:#fbda64;stroke-width:2;stroke-linecap:round;stroke-linejoin:round;stroke-miterlimit:4;stroke-dasharray:none;stroke-dashoffset:0;stroke-opacity:1;marker:none;color-rendering:auto;image-rendering:auto;shape-rendering:auto;text-rendering:auto;enable-background:accumulate"
         id="circle4390"
         cx="41.754234"
         cy="94.891731"
         r="22.87599" />
    </clipPath>
    <linearGradient
       inkscape:collect="always"
       id="linearGradient11550">
      <stop
         style="stop-color: rgb(255, 255, 255); stop-opacity: 1;"
         offset="0"
         id="stop11552" />
      <stop
         style="stop-color: rgb(255, 255, 255); stop-opacity: 0;"
         offset="1"
         id="stop11554" />
    </linearGradient>
    <linearGradient
       id="linearGradient9212">
      <stop
         style="stop-color: rgb(233, 185, 110); stop-opacity: 0;"
         offset="0"
         id="stop9214" />
      <stop
         style="stop-color: rgb(234, 186, 111); stop-opacity: 1;"
         offset="1"
         id="stop9216" />
    </linearGradient>
    <linearGradient
       inkscape:collect="always"
       id="linearGradient7641">
      <stop
         style="stop-color: rgb(255, 255, 255); stop-opacity: 1;"
         offset="0"
         id="stop7643" />
      <stop
         style="stop-color: rgb(85, 87, 83); stop-opacity: 1;"
         offset="1"
         id="stop7645" />
    </linearGradient>
    <linearGradient
       inkscape:collect="always"
       xlink:href="#linearGradient11550"
       id="linearGradient8821"
       gradientUnits="userSpaceOnUse"
       x1="25.5"
       y1="18.5"
       x2="36.5"
       y2="18.5" />
    <radialGradient
       inkscape:collect="always"
       xlink:href="#linearGradient7641"
       id="radialGradient8823"
       gradientUnits="userSpaceOnUse"
       gradientTransform="matrix(1, 0, 0, 0.75, 0, 3.75)"
       cx="23"
       cy="12.811336"
       fx="22.305519"
       fy="9.10744"
       r="3.9999999" />
    <linearGradient
       inkscape:collect="always"
       xlink:href="#linearGradient11550"
       id="linearGradient8825"
       gradientUnits="userSpaceOnUse"
       x1="21.849625"
       y1="11.702784"
       x2="27.907148"
       y2="17.132355" />
    <linearGradient
       inkscape:collect="always"
       xlink:href="#linearGradient11550"
       id="linearGradient10783"
       gradientUnits="userSpaceOnUse"
       x1="25.5"
       y1="18.5"
       x2="36.5"
       y2="18.5"
       gradientTransform="matrix(10.16656,0,0,10.16656,-682.65836,5.50421)" />
    <path
       style="color:#000000;clip-rule:nonzero;display:inline;overflow:visible;visibility:visible;opacity:1;isolation:auto;mix-blend-mode:normal;color-interpolation:sRGB;color-interpolation-filters:linearRGB;solid-color:#000000;solid-opacity:1;fill:none;fill-opacity:1;fill-rule:nonzero;stroke:none;stroke-width:0.93775845;stroke-linecap:round;stroke-linejoin:round;stroke-miterlimit:4;stroke-dasharray:none;stroke-dashoffset:0;stroke-opacity:1;marker:none;color-rendering:auto;image-rendering:auto;shape-rendering:auto;text-rendering:auto;enable-background:accumulate"
       d="m 110.3907,11.552701 a 84.263268,84.263268 0 0 0 -99.841049,65.056593 84.263268,84.263268 0 0 0 65.056594,99.841056 84.263268,84.263268 0 0 0 99.841055,-65.0566 84.263268,84.263268 0 0 0 -65.0566,-99.841049 z"
       id="circle854-3"
       inkscape:connector-curvature="0" />
  </defs>
  <sodipodi:namedview
     inkscape:snap-global="false"
     inkscape:document-rotation="0"
     inkscape:current-layer="svg2"
     inkscape:window-maximized="1"
     inkscape:window-y="20"
     inkscape:window-x="66"
     inkscape:cy="44.5"
     inkscape:cx="96.5"
     inkscape:zoom="1"
     fit-margin-bottom="0"
     fit-margin-right="0"
     fit-margin-left="0"
     fit-margin-top="0"
     showgrid="false"
     id="namedview64"
     inkscape:window-height="843"
     inkscape:window-width="1534"
     inkscape:pageshadow="2"
     inkscape:pageopacity="0"
     guidetolerance="10"
     gridtolerance="10"
     objecttolerance="10"
     borderopacity="1"
     bordercolor="#666666"
     pagecolor="#ffffff"
     inkscape:pagecheckerboard="0" />
  <metadata
     id="metadata61">
    <rdf:RDF>
      <cc:Work>
        <dc:format>image/svg+xml</dc:format>
        <dc:type
           rdf:resource="http://purl.org/dc/dcmitype/StillImage" />
        <cc:license
           rdf:resource="http://creativecommons.org/publicdomain/zero/1.0/" />
        <dc:publisher>
          <cc:Agent
             rdf:about="http://openclipart.org/">
            <dc:title>Openclipart</dc:title>
          </cc:Agent>
        </dc:publisher>
        <dc:title />
        <dc:date>2008-03-15T22:35:33</dc:date>
        <dc:description>Masonic Square and Compasses</dc:description>
        <dc:source>https://openclipart.org/detail/15800/square-and-compasses-by-coder7</dc:source>
        <dc:creator>
          <cc:Agent>
            <dc:title>coder7</dc:title>
          </cc:Agent>
        </dc:creator>
        <dc:subject>
          <rdf:Bag>
            <rdf:li>line art</rdf:li>
            <rdf:li>masonic</rdf:li>
            <rdf:li>outline</rdf:li>
          </rdf:Bag>
        </dc:subject>
      </cc:Work>
      <cc:License
         rdf:about="http://creativecommons.org/publicdomain/zero/1.0/">
        <cc:permits
           rdf:resource="http://creativecommons.org/ns#Reproduction" />
        <cc:permits
           rdf:resource="http://creativecommons.org/ns#Distribution" />
        <cc:permits
           rdf:resource="http://creativecommons.org/ns#DerivativeWorks" />
      </cc:License>
    </rdf:RDF>
  </metadata>
  <circle
     r="89.856049"
     cy="94.001526"
     cx="92.998474"
     id="path4147"
     style="color:#000000;clip-rule:nonzero;display:inline;overflow:visible;visibility:visible;opacity:1;isolation:auto;mix-blend-mode:normal;color-interpolation:sRGB;color-interpolation-filters:linearRGB;solid-color:#000000;solid-opacity:1;fill:#ffffff;fill-opacity:1;fill-rule:nonzero;stroke:#808080;stroke-width:4.99161;stroke-linecap:round;stroke-linejoin:round;stroke-miterlimit:4;stroke-dasharray:none;stroke-dashoffset:0;stroke-opacity:1;marker:none;color-rendering:auto;image-rendering:auto;shape-rendering:auto;text-rendering:auto;enable-background:accumulate;stop-opacity:1" />
  <circle
     style="color:#000000;clip-rule:nonzero;display:inline;overflow:visible;visibility:visible;opacity:1;isolation:auto;mix-blend-mode:normal;color-interpolation:sRGB;color-interpolation-filters:linearRGB;solid-color:#000000;solid-opacity:1;fill:#ffffff;fill-opacity:1;fill-rule:nonzero;stroke:#808080;stroke-width:4.99161;stroke-linecap:round;stroke-linejoin:round;stroke-miterlimit:4;stroke-dasharray:none;stroke-dashoffset:0;stroke-opacity:1;marker:none;color-rendering:auto;image-rendering:auto;shape-rendering:auto;text-rendering:auto;enable-background:accumulate;stop-opacity:1"
     id="circle4149"
     cx="92.998459"
     cy="94.001511"
     r="57.093945" />
  <rect
     transform="rotate(19.118799)"
     y="-1.7414758"
     x="161.35301"
     height="17.70178"
     width="17.70178"
     id="rect4165-28"
     style="color:#000000;clip-rule:nonzero;display:inline;overflow:visible;visibility:visible;opacity:1;isolation:auto;mix-blend-mode:normal;color-interpolation:sRGB;color-interpolation-filters:linearRGB;solid-color:#000000;solid-opacity:1;fill:#808080;fill-opacity:1;fill-rule:nonzero;stroke:none;stroke-width:9.43293;stroke-linecap:round;stroke-linejoin:round;stroke-miterlimit:4;stroke-dasharray:none;stroke-dashoffset:0;stroke-opacity:1;marker:none;color-rendering:auto;image-rendering:auto;shape-rendering:auto;text-rendering:auto;enable-background:accumulate;stop-opacity:1" />
  <rect
     transform="rotate(-6.5954706)"
     y="43.962654"
     x="124.28219"
     height="17.70178"
     width="17.70178"
     id="rect4165-28-3"
     style="color:#000000;clip-rule:nonzero;display:inline;overflow:visible;visibility:visible;opacity:1;isolation:auto;mix-blend-mode:normal;color-interpolation:sRGB;color-interpolation-filters:linearRGB;solid-color:#000000;solid-opacity:1;fill:#808080;fill-opacity:1;fill-rule:nonzero;stroke:none;stroke-width:9.43293;stroke-linecap:round;stroke-linejoin:round;stroke-miterlimit:4;stroke-dasharray:none;stroke-dashoffset:0;stroke-opacity:1;marker:none;color-rendering:auto;image-rendering:auto;shape-rendering:auto;text-rendering:auto;enable-background:accumulate;stop-opacity:1" />
  <rect
     transform="rotate(-32.309767)"
     y="69.056267"
     x="71.0522"
     height="17.70178"
     width="17.70178"
     id="rect4165-28-9"
     style="color:#000000;clip-rule:nonzero;display:inline;overflow:visible;visibility:visible;opacity:1;isolation:auto;mix-blend-mode:normal;color-interpolation:sRGB;color-interpolation-filters:linearRGB;solid-color:#000000;solid-opacity:1;fill:#808080;fill-opacity:1;fill-rule:nonzero;stroke:none;stroke-width:9.43293;stroke-linecap:round;stroke-linejoin:round;stroke-miterlimit:4;stroke-dasharray:none;stroke-dashoffset:0;stroke-opacity:1;marker:none;color-rendering:auto;image-rendering:auto;shape-rendering:auto;text-rendering:auto;enable-background:accumulate;stop-opacity:1" />
  <rect
     transform="rotate(-58.024036)"
     y="68.569191"
     x="12.20598"
     height="17.70178"
     width="17.70178"
     id="rect4165-28-28"
     style="color:#000000;clip-rule:nonzero;display:inline;overflow:visible;visibility:visible;opacity:1;isolation:auto;mix-blend-mode:normal;color-interpolation:sRGB;color-interpolation-filters:linearRGB;solid-color:#000000;solid-opacity:1;fill:#808080;fill-opacity:1;fill-rule:nonzero;stroke:none;stroke-width:9.43293;stroke-linecap:round;stroke-linejoin:round;stroke-miterlimit:4;stroke-dasharray:none;stroke-dashoffset:0;stroke-opacity:1;marker:none;color-rendering:auto;image-rendering:auto;shape-rendering:auto;text-rendering:auto;enable-background:accumulate;stop-opacity:1" />
  <rect
     transform="rotate(-83.738332)"
     y="42.597904"
     x="-40.601337"
     height="17.70178"
     width="17.70178"
     id="rect4165-28-21"
     style="color:#000000;clip-rule:nonzero;display:inline;overflow:visible;visibility:visible;opacity:1;isolation:auto;mix-blend-mode:normal;color-interpolation:sRGB;color-interpolation-filters:linearRGB;solid-color:#000000;solid-opacity:1;fill:#808080;fill-opacity:1;fill-rule:nonzero;stroke:none;stroke-width:9.43293;stroke-linecap:round;stroke-linejoin:round;stroke-miterlimit:4;stroke-dasharray:none;stroke-dashoffset:0;stroke-opacity:1;marker:none;color-rendering:auto;image-rendering:auto;shape-rendering:auto;text-rendering:auto;enable-background:accumulate;stop-opacity:1" />
  <rect
     transform="rotate(-109.45261)"
     y="-3.7136307"
     x="-76.910553"
     height="17.70178"
     width="17.70178"
     id="rect4165-28-6"
     style="color:#000000;clip-rule:nonzero;display:inline;overflow:visible;visibility:visible;opacity:1;isolation:auto;mix-blend-mode:normal;color-interpolation:sRGB;color-interpolation-filters:linearRGB;solid-color:#000000;solid-opacity:1;fill:#808080;fill-opacity:1;fill-rule:nonzero;stroke:none;stroke-width:9.43293;stroke-linecap:round;stroke-linejoin:round;stroke-miterlimit:4;stroke-dasharray:none;stroke-dashoffset:0;stroke-opacity:1;marker:none;color-rendering:auto;image-rendering:auto;shape-rendering:auto;text-rendering:auto;enable-background:accumulate;stop-opacity:1" />
  <rect
     transform="rotate(44.833087)"
     y="-59.003944"
     x="174.92241"
     height="17.70178"
     width="17.70178"
     id="rect4165-28-0"
     style="color:#000000;clip-rule:nonzero;display:inline;overflow:visible;visibility:visible;opacity:1;isolation:auto;mix-blend-mode:normal;color-interpolation:sRGB;color-interpolation-filters:linearRGB;solid-color:#000000;solid-opacity:1;fill:#808080;fill-opacity:1;fill-rule:nonzero;stroke:none;stroke-width:9.43293;stroke-linecap:round;stroke-linejoin:round;stroke-miterlimit:4;stroke-dasharray:none;stroke-dashoffset:0;stroke-opacity:1;marker:none;color-rendering:auto;image-rendering:auto;shape-rendering:auto;text-rendering:auto;enable-background:accumulate;stop-opacity:1" />
  <path
     d=""
     sodipodi:nodetypes="cc"
     id="path8421"
     style="fill:none;fill-opacity:1;stroke:url(#linearGradient10783);stroke-width:10.16656017;stroke-linecap:round;stroke-linejoin:miter;stroke-miterlimit:4;stroke-dasharray:none;stroke-dashoffset:1.96000004;stroke-opacity:1"
     inkscape:connector-curvature="0" />
  <g
     aria-label="COMMENT"
     id="text852"
     style="font-size:26.523px;line-height:1.25;text-align:center;letter-spacing:0px;word-spacing:0px;text-anchor:middle;fill:#808080;stroke-width:0.663074">
    <path
       d="m 19.790824,134.34708 q -1.198696,-0.97724 -2.12272,-2.20026 -0.924025,-1.22301 -1.566633,-2.70884 -1.917541,-4.43371 -0.565832,-8.09429 1.363596,-3.66573 5.60712,-5.50101 4.25541,-1.84043 7.848535,-0.31845 3.605012,1.51684 5.522553,5.95055 0.642608,1.48583 0.900982,2.99674 0.258373,1.5109 0.149541,3.05363 l -3.672966,1.58853 q 0.317651,-1.64715 0.187146,-3.05815 -0.130504,-1.411 -0.721703,-2.77796 -1.059018,-2.44864 -3.234673,-3.17267 -2.175656,-0.72403 -4.933352,0.46865 -2.745809,1.18754 -3.708222,3.26875 -0.962412,2.08122 0.09661,4.52986 0.591199,1.36697 1.529994,2.42838 0.938795,1.06142 2.35659,1.95801 z"
       style="font-weight:bold;letter-spacing:3.9px"
       id="path1658" />
    <path
       d="m 40.973527,138.09252 q -1.472513,-1.73983 -3.56917,-1.61106 -2.096657,0.12877 -4.42961,2.10328 -2.323067,1.96614 -2.796613,4.01267 -0.473545,2.04654 0.998968,3.78637 1.48088,1.74971 3.577537,1.62094 2.096656,-0.12877 4.419724,-2.09491 2.332953,-1.9745 2.806498,-4.02104 0.473546,-2.04653 -1.007334,-3.79625 z m 2.758025,-2.33427 q 3.011959,3.55875 2.682345,7.29888 -0.329615,3.74013 -3.918013,6.77718 -3.578512,3.0287 -7.32168,2.73559 -3.743168,-0.29311 -6.755127,-3.85186 -3.003592,-3.54885 -2.682345,-7.29887 0.329615,-3.74013 3.908127,-6.76882 3.588398,-3.03706 7.331566,-2.74395 3.751534,0.303 6.755127,3.85185 z"
       style="font-weight:bold;letter-spacing:3.9px"
       id="path1660" />
    <path
       d="m 50.814959,144.55108 5.471938,3.21365 -1.443355,11.15249 9.059399,-6.67962 5.460771,3.20709 -9.791782,16.67266 -4.064868,-2.38728 7.161839,-12.19461 -9.121085,6.7335 -2.724802,-1.60026 1.438038,-11.24572 -7.16184,12.1946 -4.076035,-2.39384 z"
       style="font-weight:bold;letter-spacing:3.9px"
       id="path1662" />
    <path
       d="m 71.306397,156.13464 6.252202,1.08609 2.567263,10.94853 6.13478,-9.43686 6.239442,1.08387 -3.309262,19.05008 -4.644493,-0.80681 2.420439,-13.93348 -6.173599,9.50899 -3.113341,-0.54083 -2.605003,-11.03396 -2.420438,13.93348 -4.657252,-0.80903 z"
       style="font-weight:bold;letter-spacing:3.9px"
       id="path1664" />
    <path
       d="m 95.413422,159.24483 13.326598,-1.8599 0.52092,3.73247 -8.38845,1.17072 0.49765,3.56573 7.88821,-1.1009 0.52092,3.73247 -7.88822,1.10091 0.61221,4.38661 8.67063,-1.2101 0.52092,3.73248 -13.608782,1.89928 z"
       style="font-weight:bold;letter-spacing:3.9px"
       id="path1666" />
    <path
       d="m 111.81198,156.75921 5.07383,-2.29515 11.87284,9.18452 -5.46565,-12.0828 4.30686,-1.94821 7.96896,17.61682 -5.07384,2.29514 -11.87283,-9.18451 5.46564,12.0828 -4.30685,1.94821 z"
       style="font-weight:bold;letter-spacing:3.9px"
       id="path1668" />
    <path
       d="m 128.53685,149.06254 13.52833,-11.59921 2.45303,2.86101 -4.86666,4.17268 10.13245,11.81763 -3.78519,3.24541 -10.13244,-11.81763 -4.87649,4.18111 z"
       style="font-weight:bold;letter-spacing:3.9px"
       id="path1670" />
  </g>
  <path
     style="color:#000000;clip-rule:nonzero;display:inline;overflow:visible;visibility:visible;opacity:1;isolation:auto;mix-blend-mode:normal;color-interpolation:sRGB;color-interpolation-filters:linearRGB;solid-color:#000000;solid-opacity:1;fill:none;fill-opacity:1;fill-rule:nonzero;stroke:none;stroke-width:0.93775845;stroke-linecap:round;stroke-linejoin:round;stroke-miterlimit:4;stroke-dasharray:none;stroke-dashoffset:0;stroke-opacity:1;marker:none;color-rendering:auto;image-rendering:auto;shape-rendering:auto;text-rendering:auto;enable-background:accumulate"
     d="m 110.3907,11.552701 a 84.263268,84.263268 0 0 0 -99.841049,65.056593 84.263268,84.263268 0 0 0 65.056594,99.841056 84.263268,84.263268 0 0 0 99.841055,-65.0566 84.263268,84.263268 0 0 0 -65.0566,-99.841049 z"
     id="circle854"
     inkscape:connector-curvature="0" />
</svg>
